module gitlab.com/keymandll/secretsource

go 1.19

require (
	github.com/aws/aws-sdk-go-v2 v1.17.8
	github.com/aws/aws-sdk-go-v2/config v1.18.21
	github.com/aws/aws-sdk-go-v2/service/secretsmanager v1.19.3
)

require (
	github.com/aws/aws-sdk-go-v2/credentials v1.13.20 // indirect
	github.com/aws/aws-sdk-go-v2/feature/ec2/imds v1.13.2 // indirect
	github.com/aws/aws-sdk-go-v2/internal/configsources v1.1.32 // indirect
	github.com/aws/aws-sdk-go-v2/internal/endpoints/v2 v2.4.26 // indirect
	github.com/aws/aws-sdk-go-v2/internal/ini v1.3.33 // indirect
	github.com/aws/aws-sdk-go-v2/service/internal/presigned-url v1.9.26 // indirect
	github.com/aws/aws-sdk-go-v2/service/sso v1.12.8 // indirect
	github.com/aws/aws-sdk-go-v2/service/ssooidc v1.14.8 // indirect
	github.com/aws/aws-sdk-go-v2/service/sts v1.18.9 // indirect
	github.com/aws/smithy-go v1.13.5 // indirect
	github.com/google/go-cmp v0.5.9 // indirect
)
